iter	RMSE
0	2.052565982
1	2.045874711
2	2.03947859
3	2.033373824
4	2.027264419
5	2.021936353
6	2.015856532
7	2.009965045
8	2.004291489
9	1.99871683
10	1.992995702
11	1.987471502
12	1.981925408
13	1.977047525
14	1.97160436
15	1.966104161
16	1.961001874
17	1.955900985
18	1.950871866
19	1.945625454
20	1.940554959
21	1.935764009
22	1.930700947
23	1.925956714
24	1.921049755
25	1.916277455
26	1.911777037
27	1.90736605
28	1.902954015
29	1.898642033
30	1.894122942
31	1.889766208
32	1.885259829
33	1.880968176
34	1.876751775
35	1.872736031
36	1.86881492
37	1.865178805
38	1.861097327
39	1.857207896
40	1.853208972
41	1.849447112
42	1.845464074
43	1.841528037
44	1.837766832
45	1.833978927
46	1.830517467
47	1.826979831
48	1.823919417
49	1.820516143
50	1.817062829
51	1.813525092
52	1.810304682
53	1.806979884
54	1.803591024
55	1.800106191
56	1.797023904
57	1.794010368
58	1.790863521
59	1.787820359
60	1.784737161
61	1.781809307
62	1.778778421
63	1.775919421
64	1.772979367
65	1.769860738
66	1.766938319
67	1.764074829
68	1.761286897
69	1.758716067
70	1.75588378
71	1.753178447
72	1.750481527
73	1.74776864
74	1.745196936
75	1.742852078
76	1.740257878
77	1.737932193
78	1.735339642
79	1.73273743
80	1.730244509
81	1.727801697
82	1.725530176
83	1.723464395
84	1.721085918
85	1.718555624
86	1.716401619
87	1.714203289
88	1.711912496
89	1.709540539
90	1.707381443
91	1.70516766
92	1.703168534
93	1.701038443
94	1.699137864
95	1.697184609
96	1.695475741
97	1.693537134
98	1.691609834
99	1.689727412
100	1.687821249
101	1.685767159
102	1.683639427
103	1.681634782
104	1.679655646
105	1.677724856
106	1.675690166
107	1.674003819
108	1.67208831
109	1.670339005
110	1.668577155
111	1.666669963
112	1.6649532
113	1.663272051
114	1.661630916
115	1.659798449
116	1.658003536
117	1.656301232
118	1.654649149
119	1.652865183
120	1.651321925
121	1.649647116
122	1.64785261
123	1.646401071
124	1.645143215
125	1.643415736
126	1.641863479
127	1.640268427
128	1.638498502
129	1.636929185
130	1.635604462
131	1.634076665
132	1.632654927
133	1.631316707
134	1.629928045
135	1.628465576
136	1.626971198
137	1.625549064
138	1.624324776
139	1.623178481
140	1.621921041
141	1.620701921
142	1.619224631
143	1.617989543
144	1.616866472
145	1.615585579
146	1.614276524
147	1.612952446
148	1.611549984
149	1.610379411
150	1.609407388
151	1.608320443
152	1.60732264
153	1.60618607
154	1.60495227
155	1.603804091
156	1.602530698
157	1.601501572
158	1.600565215
159	1.5994434
160	1.598219471
161	1.597090615
162	1.595840022
163	1.594874
164	1.593812449
165	1.592845647
166	1.591722168
167	1.5906047
168	1.589767562
169	1.58863534
170	1.587656689
171	1.586603529
172	1.585747984
173	1.584657792
174	1.583733458
175	1.582760195
176	1.581836133
177	1.580786723
178	1.579720475
179	1.578727629
180	1.577809013
181	1.576955103
182	1.575809802
183	1.574922416
184	1.573879301
185	1.572750848
186	1.571772427
187	1.570782938
188	1.56974661
189	1.568830561
190	1.567972221
191	1.567123816
192	1.566435848
193	1.565493243
194	1.564824197
195	1.563932036
196	1.563127914
197	1.562413833
198	1.561590859
199	1.560610694
200	1.559742403
201	1.558638252
202	1.557674695
203	1.556592072
204	1.556040039
205	1.555143159
206	1.554423804
207	1.553562774
208	1.552815535
209	1.551994444
210	1.55106383
211	1.550267823
212	1.549295852
213	1.548447337
214	1.54752499
215	1.546664481
216	1.545909532
217	1.545050692
218	1.544388417
219	1.54377385
220	1.542984226
221	1.54252606
222	1.541950033
223	1.541062792
224	1.540100216
225	1.53926645
226	1.538573055
227	1.537737279
228	1.537089764
229	1.536160742
230	1.535524876
231	1.534795854
232	1.534045665
233	1.533359442
234	1.532485495
235	1.531878464
236	1.531184154
237	1.530687782
238	1.529806562
239	1.528984339
240	1.528102517
241	1.527311628
242	1.526687112
243	1.525833783
244	1.525225605
245	1.524496428
246	1.523697606
247	1.523055472
248	1.522536866
249	1.521762916
250	1.521038444
251	1.520564579
252	1.519661365
253	1.518825195
254	1.517874475
255	1.517131425
256	1.516410454
257	1.515635241
258	1.515032917
259	1.514323792
260	1.513626359
261	1.513078631
262	1.512474537
263	1.512099595
264	1.511682148
265	1.51098794
266	1.510289224
267	1.509870008
268	1.509822043
269	1.509129983
270	1.508546134
271	1.507973321
272	1.507891961
273	1.507146293
274	1.506596013
275	1.50599717
276	1.50531717
277	1.504791016
278	1.504714972
279	1.504657296
280	1.504599339
281	1.50394287
282	1.503415976
283	1.502780801
284	1.502267008
285	1.501628907
286	1.500956334
287	1.500901897
288	1.500334012
289	1.500284063
290	1.499778058
291	1.499189897
292	1.498672459
293	1.498588278
294	1.498513361
295	1.497889587
296	1.497143007
297	1.496457776
298	1.495938303
299	1.495879291
